xwMOOC 기계학습
…
2.3 결측점 위생점검

모든 변수에 대해서 존재하는 결측값에 대해서 summarize_all() 함수와 is.na() 함수를 사용해서 파악하고, Amelia 팩키지 missmap() 함수를 사용해서 시각적으로도 확인한다.

#### 결측점 확인: total_charges 결측값 제거 
churn_dat %>% 
    summarise_all(funs(sum(is.na(.)))) %>% 
    gather(variable, missing_cnt) %>% 
    arrange(desc(missing_cnt))

# A tibble: 21 x 2
   variable        missing_cnt
   <chr>                 <int>
 1 TotalCharges             11
 2 customerID                0
 3 gender                    0
 4 SeniorCitizen             0
 5 Partner                   0
 6 Dependents                0
 7 tenure                    0
 8 PhoneService              0
 9 MultipleLines             0
10 InternetService           0
# ... with 11 more rows
…
