…
~~~{.r}
gutenberg_metadata %>% count(language, sort=TRUE) %>% 
    mutate(percent = n / sum(n),
           cumpcnt = scales::percent(cumsum(percent)))
~~~



~~~{.output}
# A tibble: 103 x 4
   language     n     percent cumpcnt
      <chr> <int>       <dbl>   <chr>
 1       en 42719 0.821566629   82.2%
 2       fr  2658 0.051118334   87.3%
 3       de  1387 0.026674616   89.9%
 4       fi  1341 0.025789949   92.5%
 5       nl   723 0.013904648   93.9%
 6       it   672 0.012923823   95.2%
 7       pt   537 0.010327519   96.2%
 8       es   470 0.009038983   97.1%
 9       zh   408 0.007846607   97.9%
10       el   216 0.004154086   98.3%
# ... with 93 more rows
…
poe_tidy_books <- poe_books %>% 
    group_by(title) %>% 
    mutate(linenumber = row_number()) %>% 
    unnest_tokens(word, text) %>% 
    ungroup()

poe_tidy_books %>% 
    count(word, sort=TRUE)
~~~



~~~{.output}
# A tibble: 2,474 x 2
    word     n
   <chr> <int>
 1   the   732
 2    of   492
 3   and   306
 4     i   282
 5     a   225
 6    in   178
 7    to   171
 8   was   109
 9    he   107
10   his   105
# ... with 2,464 more rows
…
