xwMOOC 기계학습
…
# iris_tbl 티블 객체에 `iris` 스파크 데이터프레임을 `tbl()` 명령어로 연결
iris_tbl <- tbl(sc, "iris")

dim(iris_tbl)

[1] 150   5

pryr::object_size(iris_tbl)

9.89 kB

# 출력
print(iris_tbl, n=6, width = Inf)

Source:   query [150 x 5]
Database: spark connection master=local[8] app=sparklyr local=TRUE

  Sepal_Length Sepal_Width Petal_Length Petal_Width Species
         <dbl>       <dbl>        <dbl>       <dbl>   <chr>
1          5.1         3.5          1.4         0.2  setosa
2          4.9         3.0          1.4         0.2  setosa
3          4.7         3.2          1.3         0.2  setosa
4          4.6         3.1          1.5         0.2  setosa
5          5.0         3.6          1.4         0.2  setosa
6          5.4         3.9          1.7         0.4  setosa
# ... with 144 more rows
…
스파크 데이터프레임을 sparklyr 팩키지를 통해 tibble() 자료형으로 연결시키고 나면 dplyr 명령어를 다수 활용할 수 있다. 가장 기본적인 dplyr 명령어는 다음과 같다.

select: 변수 선택

filter: 관측점 선택

arrange: 정렬

mutate: 변수 생성

summarize: 총합/요약

copy_to(sc, iris, overwrite = TRUE)

Source:   query [150 x 5]
Database: spark connection master=local[8] app=sparklyr local=TRUE

   Sepal_Length Sepal_Width Petal_Length Petal_Width Species
          <dbl>       <dbl>        <dbl>       <dbl>   <chr>
1           5.1         3.5          1.4         0.2  setosa
2           4.9         3.0          1.4         0.2  setosa
3           4.7         3.2          1.3         0.2  setosa
4           4.6         3.1          1.5         0.2  setosa
5           5.0         3.6          1.4         0.2  setosa
6           5.4         3.9          1.7         0.4  setosa
7           4.6         3.4          1.4         0.3  setosa
8           5.0         3.4          1.5         0.2  setosa
9           4.4         2.9          1.4         0.2  setosa
10          4.9         3.1          1.5         0.1  setosa
# ... with 140 more rows
…
Observations: 150
Variables: 5
$ Sepal_Length <dbl> 5.1, 4.9, 4.7, 4.6, 5.0, 5.4, 4.6, 5.0, 4.4, 4.9,...
$ Sepal_Width  <dbl> 3.5, 3.0, 3.2, 3.1, 3.6, 3.9, 3.4, 3.4, 2.9, 3.1,...
$ Petal_Length <dbl> 1.4, 1.4, 1.3, 1.5, 1.4, 1.7, 1.4, 1.5, 1.4, 1.5,...
$ Petal_Width  <dbl> 0.2, 0.2, 0.2, 0.2, 0.2, 0.4, 0.3, 0.2, 0.2, 0.1,...
$ Species      <chr> "setosa", "setosa", "setosa", "setosa", "setosa",...

# 2. 기본 데이터 처리 ------------------------------------------
## 2.1. select
iris_sdf_tbl %>% dplyr::select(Sepal_Length, Petal_Length, Species)

Source:   query [150 x 3]
Database: spark connection master=local[8] app=sparklyr local=TRUE

   Sepal_Length Petal_Length Species
          <dbl>        <dbl>   <chr>
1           5.1          1.4  setosa
2           4.9          1.4  setosa
3           4.7          1.3  setosa
4           4.6          1.5  setosa
5           5.0          1.4  setosa
6           5.4          1.7  setosa
7           4.6          1.4  setosa
8           5.0          1.5  setosa
9           4.4          1.4  setosa
10          4.9          1.5  setosa
# ... with 140 more rows

## 2.2. filter
iris_sdf_tbl %>% dplyr::select(Sepal_Length, Petal_Length, Species) %>% 
  dplyr::filter(Sepal_Length > 5.0, Petal_Length > 5)

Source:   query [42 x 3]
Database: spark connection master=local[8] app=sparklyr local=TRUE

   Sepal_Length Petal_Length    Species
          <dbl>        <dbl>      <chr>
1           6.0          5.1 versicolor
2           6.3          6.0  virginica
3           5.8          5.1  virginica
4           7.1          5.9  virginica
5           6.3          5.6  virginica
6           6.5          5.8  virginica
7           7.6          6.6  virginica
8           7.3          6.3  virginica
9           6.7          5.8  virginica
10          7.2          6.1  virginica
# ... with 32 more rows

## 2.3. arrange
iris_sdf_tbl %>% dplyr::select(Sepal_Length, Petal_Length, Species) %>% 
  dplyr::filter(Sepal_Length > 5.0, Petal_Length > 5) %>% 
  arrange(Species, desc(Petal_Length), Sepal_Length)

Source:   query [42 x 3]
Database: spark connection master=local[8] app=sparklyr local=TRUE

   Sepal_Length Petal_Length    Species
          <dbl>        <dbl>      <chr>
1           6.0          5.1 versicolor
2           7.7          6.9  virginica
3           7.7          6.7  virginica
4           7.7          6.7  virginica
5           7.6          6.6  virginica
6           7.9          6.4  virginica
7           7.3          6.3  virginica
8           7.2          6.1  virginica
9           7.4          6.1  virginica
10          7.7          6.1  virginica
# ... with 32 more rows

## 2.4. mutate
iris_sdf_tbl %>% dplyr::select(Sepal_Length, Petal_Length, Species) %>% 
  dplyr::filter(Sepal_Length > 5.0, Petal_Length > 5) %>% 
  arrange(Species, desc(Petal_Length), Sepal_Length) %>% 
  mutate(log_Sepal_Length = log(Sepal_Length))

Source:   query [42 x 4]
Database: spark connection master=local[8] app=sparklyr local=TRUE

   Sepal_Length Petal_Length    Species log_Sepal_Length
          <dbl>        <dbl>      <chr>            <dbl>
1           6.0          5.1 versicolor        0.5581106
2           7.7          6.9  virginica        0.4899030
3           7.7          6.7  virginica        0.4899030
4           7.7          6.7  virginica        0.4899030
5           7.6          6.6  virginica        0.4930606
6           7.9          6.4  virginica        0.4838251
7           7.3          6.3  virginica        0.5030499
8           7.2          6.1  virginica        0.5065648
9           7.4          6.1  virginica        0.4996303
10          7.7          6.1  virginica        0.4899030
# ... with 32 more rows
…
4.2. dplyr 고급 기능

변수를 선택할 때 starts_with, ends_with, contain 등을 활용할 수 있고, distinct도 변수내 포함된 범주를 식별할 때 도움이 많이 된다. 특히, 범주형 변수의 경우 count 함수에 정렬 sort=TRUE를 넣고 top_n 을 통해 상위 출현빈도가 많은 범주를 찾아내는 것도 많이 활용되는 패턴이다.

group_by 함수를 함께 넣어 집단별로 요약통계량을 계산하는 것도 가능히다.

dplyr에서 데이터를 다루는 R 코드를 작성하면 내부적으로 이를 SQL 문으로 변환시켜 스파크 클러스터에 전달시킨다. 따라서, spark_connect에서 정의한 SPARK Context를 인자로 넣고 SQL 문장을 넣으면 R 코드로 작성한 동일한 결과를 얻게 된다. dplyr R 코드가 SQL 코드로 변환한 것을 확인하고자 할 경우, 혹은 R을 모르는 다른 개발자와 SQL로 의사소통을 하고자 할 때, explain 명령어를 통해 SQL 코드를 얻을 수 있다.

# 3. 고급 데이터 처리 ------------------------------------------
## 3.1. select 
iris_sdf_tbl %>% dplyr::select(starts_with("Sepal"), Species)

Source:   query [150 x 3]
Database: spark connection master=local[8] app=sparklyr local=TRUE

   Sepal_Length Sepal_Width Species
          <dbl>       <dbl>   <chr>
1           5.1         3.5  setosa
2           4.9         3.0  setosa
3           4.7         3.2  setosa
4           4.6         3.1  setosa
5           5.0         3.6  setosa
6           5.4         3.9  setosa
7           4.6         3.4  setosa
8           5.0         3.4  setosa
9           4.4         2.9  setosa
10          4.9         3.1  setosa
# ... with 140 more rows
…
6.3. 기계학습 예측 모형

기계학습을 위한 모형이 준비되었다면 다음 단계로 스파크 빅데이터에서 sdf_sample 함수를 사용하여 표본을 추출(10%)하여 탐색적 데이터분석(EDA)을 진행하는 것도 권장된다.

예측모형을 개발하고자 하는 경우 sdf_partition 함수를 통해 훈련데이터와 검증 데이터로 나눠서 훈련데이터를 예측모형(Random Forest) ml_random_forest 함수에 넣어 예측모형을 개발하고 나서, 검증 데이터로 예측모형의 성능을 점검한다.

# 1. 기계학습 -----------------------------------------------
## 1.1. 표본추출 --------------------------------------------
iris_sdf_tbl %>% 
  sdf_sample(fraction = 0.1, replacement=FALSE) %>% 
  compute("iris_10_pcnt")

Source:   query [22 x 5]
Database: spark connection master=local[8] app=sparklyr local=TRUE

   Sepal_Length Sepal_Width Petal_Length Petal_Width    Species
          <dbl>       <dbl>        <dbl>       <dbl>      <chr>
1           4.6         3.1          1.5         0.2     setosa
2           5.4         3.9          1.7         0.4     setosa
3           4.8         3.4          1.6         0.2     setosa
4           5.0         3.0          1.6         0.2     setosa
5           4.8         3.1          1.6         0.2     setosa
6           5.1         3.8          1.9         0.4     setosa
7           7.0         3.2          4.7         1.4 versicolor
8           6.9         3.1          4.9         1.5 versicolor
9           6.5         2.8          4.6         1.5 versicolor
10          6.3         3.3          4.7         1.6 versicolor
# ... with 12 more rows
…
