…
~~~{.r}
# 출력
print(iris_tbl, n=6, width = Inf)
~~~



~~~{.output}
Source:   query [150 x 5]
Database: spark connection master=local[8] app=sparklyr local=TRUE

# A tibble: 150 x 5
  Sepal_Length Sepal_Width Petal_Length Petal_Width Species
         <dbl>       <dbl>        <dbl>       <dbl>   <chr>
1          5.1         3.5          1.4         0.2  setosa
2          4.9         3.0          1.4         0.2  setosa
3          4.7         3.2          1.3         0.2  setosa
4          4.6         3.1          1.5         0.2  setosa
5          5.0         3.6          1.4         0.2  setosa
6          5.4         3.9          1.7         0.4  setosa
# ... with 144 more rows
…
~~~{.r}
copy_to(sc, iris, overwrite = TRUE)
~~~



~~~{.output}
Source:   query [150 x 5]
Database: spark connection master=local[8] app=sparklyr local=TRUE

# A tibble: 150 x 5
   Sepal_Length Sepal_Width Petal_Length Petal_Width Species
          <dbl>       <dbl>        <dbl>       <dbl>   <chr>
 1          5.1         3.5          1.4         0.2  setosa
 2          4.9         3.0          1.4         0.2  setosa
 3          4.7         3.2          1.3         0.2  setosa
 4          4.6         3.1          1.5         0.2  setosa
 5          5.0         3.6          1.4         0.2  setosa
 6          5.4         3.9          1.7         0.4  setosa
 7          4.6         3.4          1.4         0.3  setosa
 8          5.0         3.4          1.5         0.2  setosa
 9          4.4         2.9          1.4         0.2  setosa
10          4.9         3.1          1.5         0.1  setosa
# ... with 140 more rows
…
~~~{.r}
# 2. 기본 데이터 처리 ------------------------------------------
## 2.1. select
iris_sdf_tbl %>% dplyr::select(Sepal_Length, Petal_Length, Species)
~~~



~~~{.output}
Source:   query [150 x 3]
Database: spark connection master=local[8] app=sparklyr local=TRUE

# A tibble: 150 x 3
   Sepal_Length Petal_Length Species
          <dbl>        <dbl>   <chr>
 1          5.1          1.4  setosa
 2          4.9          1.4  setosa
 3          4.7          1.3  setosa
 4          4.6          1.5  setosa
 5          5.0          1.4  setosa
 6          5.4          1.7  setosa
 7          4.6          1.4  setosa
 8          5.0          1.5  setosa
 9          4.4          1.4  setosa
10          4.9          1.5  setosa
# ... with 140 more rows
…
~~~{.r}
## 2.2. filter
iris_sdf_tbl %>% dplyr::select(Sepal_Length, Petal_Length, Species) %>% 
  dplyr::filter(Sepal_Length > 5.0, Petal_Length > 5)
~~~



~~~{.output}
Source:   query [42 x 3]
Database: spark connection master=local[8] app=sparklyr local=TRUE

# A tibble: 42 x 3
   Sepal_Length Petal_Length    Species
          <dbl>        <dbl>      <chr>
 1          6.0          5.1 versicolor
 2          6.3          6.0  virginica
 3          5.8          5.1  virginica
 4          7.1          5.9  virginica
 5          6.3          5.6  virginica
 6          6.5          5.8  virginica
 7          7.6          6.6  virginica
 8          7.3          6.3  virginica
 9          6.7          5.8  virginica
10          7.2          6.1  virginica
# ... with 32 more rows
…
~~~{.r}
## 2.3. arrange
iris_sdf_tbl %>% dplyr::select(Sepal_Length, Petal_Length, Species) %>% 
  dplyr::filter(Sepal_Length > 5.0, Petal_Length > 5) %>% 
  arrange(Species, desc(Petal_Length), Sepal_Length)
~~~



~~~{.output}
Source:   query [42 x 3]
Database: spark connection master=local[8] app=sparklyr local=TRUE

# A tibble: 42 x 3
   Sepal_Length Petal_Length    Species
          <dbl>        <dbl>      <chr>
 1          6.0          5.1 versicolor
 2          7.7          6.9  virginica
 3          7.7          6.7  virginica
 4          7.7          6.7  virginica
 5          7.6          6.6  virginica
 6          7.9          6.4  virginica
 7          7.3          6.3  virginica
 8          7.2          6.1  virginica
 9          7.4          6.1  virginica
10          7.7          6.1  virginica
# ... with 32 more rows
…
~~~{.r}
## 2.4. mutate
iris_sdf_tbl %>% dplyr::select(Sepal_Length, Petal_Length, Species) %>% 
  dplyr::filter(Sepal_Length > 5.0, Petal_Length > 5) %>% 
  arrange(Species, desc(Petal_Length), Sepal_Length) %>% 
  mutate(log_Sepal_Length = log(Sepal_Length))
~~~



~~~{.output}
Source:   query [42 x 4]
Database: spark connection master=local[8] app=sparklyr local=TRUE

# A tibble: 42 x 4
   Sepal_Length Petal_Length    Species log_Sepal_Length
          <dbl>        <dbl>      <chr>            <dbl>
 1          6.0          5.1 versicolor        0.5581106
 2          7.7          6.9  virginica        0.4899030
 3          7.7          6.7  virginica        0.4899030
 4          7.7          6.7  virginica        0.4899030
 5          7.6          6.6  virginica        0.4930606
 6          7.9          6.4  virginica        0.4838251
 7          7.3          6.3  virginica        0.5030499
 8          7.2          6.1  virginica        0.5065648
 9          7.4          6.1  virginica        0.4996303
10          7.7          6.1  virginica        0.4899030
# ... with 32 more rows
…
~~~{.r}
# 3. 고급 데이터 처리 ------------------------------------------
## 3.1. select 
iris_sdf_tbl %>% dplyr::select(starts_with("Sepal"), Species)
~~~



~~~{.output}
Source:   query [150 x 3]
Database: spark connection master=local[8] app=sparklyr local=TRUE

# A tibble: 150 x 3
   Sepal_Length Sepal_Width Species
          <dbl>       <dbl>   <chr>
 1          5.1         3.5  setosa
 2          4.9         3.0  setosa
 3          4.7         3.2  setosa
 4          4.6         3.1  setosa
 5          5.0         3.6  setosa
 6          5.4         3.9  setosa
 7          4.6         3.4  setosa
 8          5.0         3.4  setosa
 9          4.4         2.9  setosa
10          4.9         3.1  setosa
# ... with 140 more rows
…
