…
review_words
~~~



~~~{.output}
# A tibble: 4,487,246 x 4
                review_id            business_id stars       word
                    <chr>                  <chr> <int>      <chr>
 1 NxL8SIC5yqOdnlXCg18IBg 2aFiy99vNLklCx3T_tGS9A     5      enjoy
 2 NxL8SIC5yqOdnlXCg18IBg 2aFiy99vNLklCx3T_tGS9A     5    service
 3 NxL8SIC5yqOdnlXCg18IBg 2aFiy99vNLklCx3T_tGS9A     5  competent
 4 NxL8SIC5yqOdnlXCg18IBg 2aFiy99vNLklCx3T_tGS9A     5 personable
 5 NxL8SIC5yqOdnlXCg18IBg 2aFiy99vNLklCx3T_tGS9A     5  recommend
 6 NxL8SIC5yqOdnlXCg18IBg 2aFiy99vNLklCx3T_tGS9A     5      corey
 7 NxL8SIC5yqOdnlXCg18IBg 2aFiy99vNLklCx3T_tGS9A     5     kaplan
 8 NxL8SIC5yqOdnlXCg18IBg 2aFiy99vNLklCx3T_tGS9A     5     highly
 9 NxL8SIC5yqOdnlXCg18IBg 2aFiy99vNLklCx3T_tGS9A     5       time
10 NxL8SIC5yqOdnlXCg18IBg 2aFiy99vNLklCx3T_tGS9A     5      spent
# ... with 4,487,236 more rows
…
~~~{.r}
## 2.2. 감성사전 ----------------------------------
AFINN <- sentiments %>%
    filter(lexicon == "AFINN") %>%
    select(word, afinn_score = score)

AFINN
~~~



~~~{.output}
# A tibble: 2,476 x 2
         word afinn_score
        <chr>       <int>
 1    abandon          -2
 2  abandoned          -2
 3   abandons          -2
 4   abducted          -2
 5  abduction          -2
 6 abductions          -2
 7      abhor          -3
 8   abhorred          -3
 9  abhorrent          -3
10     abhors          -3
# ... with 2,466 more rows
…
~~~{.r}
bing <- sentiments %>%
    filter(lexicon == "bing") %>%
    select(word, bing_score = sentiment)

bing
~~~



~~~{.output}
# A tibble: 6,788 x 2
          word bing_score
         <chr>      <chr>
 1     2-faced   negative
 2     2-faces   negative
 3          a+   positive
 4    abnormal   negative
 5     abolish   negative
 6  abominable   negative
 7  abominably   negative
 8   abominate   negative
 9 abomination   negative
10       abort   negative
# ... with 6,778 more rows
…
~~~{.r}
nrc <- sentiments %>%
    filter(lexicon == "nrc") %>%
    select(word, nrc_score = sentiment)

nrc
~~~



~~~{.output}
# A tibble: 13,901 x 2
          word nrc_score
         <chr>     <chr>
 1      abacus     trust
 2     abandon      fear
 3     abandon  negative
 4     abandon   sadness
 5   abandoned     anger
 6   abandoned      fear
 7   abandoned  negative
 8   abandoned   sadness
 9 abandonment     anger
10 abandonment      fear
# ... with 13,891 more rows
…
~~~{.r}
# 3. 텍스트 감성분석 -----------------------------------
## 3.1. 평점과 감성분석 연관성
reviews_sentiment <- review_words %>%
    inner_join(AFINN, by = "word") %>%
    group_by(review_id, stars) %>%
    summarize(sentiment = mean(afinn_score))

reviews_sentiment
~~~



~~~{.output}
# A tibble: 94,147 x 3
# Groups:   review_id [?]
                review_id stars sentiment
                    <chr> <int>     <dbl>
 1 --_lgetOolR3U4ntiICuGA     3  1.000000
 2 --5X1FSpOqrRuBMLZls0zA     1 -1.454545
 3 --aGVrDsKsmhta6HDM47yw     5  1.777778
 4 --j4mgdN9s_ugDbGVXUW_w     4 -1.000000
 5 --M88mpupd2LvF_hB-J6ug     5  3.500000
 6 --mirtiVi9kmkJppPUll4A     3 -3.000000
 7 --NyImvY7i6LrHK1ToK4Vw     4  1.333333
 8 --oGVSuHeVB0oTPLpdJHCw     5  3.000000
 9 --PHB3nACoT8ETKpTlKuuA     3  1.000000
10 --PYx_szZyli7oo8-VCRJA     5  4.000000
# ... with 94,137 more rows
…
~~~{.r}
## 3.2. 긍정/부정과 연관된 평점
review_words_counted <- review_words %>%
    count(review_id, business_id, stars, word) %>%
    ungroup()

review_words_counted
~~~



~~~{.output}
# A tibble: 3,749,313 x 5
                review_id            business_id stars     word     n
                    <chr>                  <chr> <int>    <chr> <int>
 1 --_lgetOolR3U4ntiICuGA 1qw65j15MqKqYkljH_iSyA     3   buffet     1
 2 --_lgetOolR3U4ntiICuGA 1qw65j15MqKqYkljH_iSyA     3  buffets     1
 3 --_lgetOolR3U4ntiICuGA 1qw65j15MqKqYkljH_iSyA     3  chinese     1
 4 --_lgetOolR3U4ntiICuGA 1qw65j15MqKqYkljH_iSyA     3 crawdads     1
 5 --_lgetOolR3U4ntiICuGA 1qw65j15MqKqYkljH_iSyA     3   dinner     1
 6 --_lgetOolR3U4ntiICuGA 1qw65j15MqKqYkljH_iSyA     3     fill     1
 7 --_lgetOolR3U4ntiICuGA 1qw65j15MqKqYkljH_iSyA     3     fire     1
 8 --_lgetOolR3U4ntiICuGA 1qw65j15MqKqYkljH_iSyA     3      fun     1
 9 --_lgetOolR3U4ntiICuGA 1qw65j15MqKqYkljH_iSyA     3 hankerin     1
10 --_lgetOolR3U4ntiICuGA 1qw65j15MqKqYkljH_iSyA     3     lots     1
# ... with 3,749,303 more rows
…
word_summaries
~~~



~~~{.output}
# A tibble: 118,764 x 5
                        word businesses reviews  uses average_stars
                       <chr>      <int>   <int> <int>         <dbl>
 1                    a'ight          1       1     1      3.000000
 2                      a'la          3       3     4      4.666667
 3                 a'manager          1       1     1      1.000000
 4                        aa         23      30    46      4.300000
 5                       aaa         52      67    91      3.611940
 6                     aaa's          1       2     2      4.500000
 7                     aaaaa          1       1     1      5.000000
 8 aaaaaaaaaahhhhhhhhhhhhhhh          1       1     1      5.000000
 9                  aaaaaand          1       1     1      4.000000
10                  aaaaaber          1       1     1      3.000000
# ... with 118,754 more rows
…
~~~{.r}
word_summaries_filtered <- word_summaries %>%
    filter(reviews >= 2000, businesses >= 100)


# 평점이 높은 단어
word_summaries_filtered %>%
    arrange(desc(average_stars))
~~~



~~~{.output}
# A tibble: 289 x 5
           word businesses reviews  uses average_stars
          <chr>      <int>   <int> <int>         <dbl>
 1       highly       3268    4525  4697      4.593370
 2      amazing       4434    7154  8219      4.482947
 3    wonderful       2395    3108  3416      4.461712
 4    fantastic       2349    2944  3175      4.406250
 5      awesome       3540    5085  5684      4.361849
 6 professional       2320    3310  3548      4.355287
 7    excellent       3285    4448  4954      4.330261
 8    beautiful       1922    2861  3244      4.301992
 9     favorite       2041    2925  3176      4.255385
10      perfect       2851    3933  4339      4.249428
# ... with 279 more rows

~~~



~~~{.r}
# 평점이 낮은 단어
word_summaries_filtered %>%
    arrange(average_stars)
~~~



~~~{.output}
# A tibble: 289 x 5
        word businesses reviews  uses average_stars
       <chr>      <int>   <int> <int>         <dbl>
 1     worst       1856    2326  2556      1.526655
 2      rude       1852    2296  2698      1.619774
 3   manager       1789    2400  3193      2.362083
 4      told       4259    6286  9122      2.387051
 5      paid       2011    2408  2744      2.438538
 6     phone       2229    2947  3924      2.515100
 7     money       3401    4568  5407      2.518608
 8     guess       2032    2461  2646      2.700935
 9 customers       2383    2969  3383      2.719771
10      left       3751    5172  6030      2.721578
# ... with 279 more rows
…
