…
# R = average for the movie (mean) = (Rating)
# v = number of votes for the movie = (votes)
# m = minimum votes required to be listed in the Top 250
# C = the mean vote across the whole report
avg_rating <- avg_rating %>%
    mutate(wr = weighted_rating(mean, count, 500, mean(mean))) %>%
    arrange(desc(wr))

avg_rating 
~~~



~~~{.output}
# A tibble: 9,048 x 8
   movieId                              title  year count     mean   min
     <int>                              <chr> <int> <int>    <dbl> <dbl>
 1     356                       Forrest Gump  1994   341 4.054252   1.0
 2     296                       Pulp Fiction  1994   324 4.256173   0.5
 3     318          Shawshank Redemption, The  1994   311 4.487138   1.0
 4     593          Silence of the Lambs, The  1991   304 4.138158   0.5
 5     260 Star Wars: Episode IV - A New Hope  1977   291 4.221649   0.5
 6     480                      Jurassic Park  1993   274 3.706204   0.5
 7    2571                        Matrix, The  1999   259 4.183398   1.0
 8       1                          Toy Story  1995   247 3.872470   1.0
 9     527                   Schindler's List  1993   244 4.303279   0.5
10     589         Terminator 2: Judgment Day  1991   237 4.006329   1.0
# ... with 9,038 more rows, and 2 more variables: max <dbl>, wr <dbl>
…
